…
drug_use_html = read_html(url)
```

``` r
table_marj = 
  drug_use_html %>%
  html_table() %>%
  first() %>%
  slice(-1) %>% 
  as_tibble()

table_marj
```

    ## # A tibble: 56 × 16
    ##    State     `12+(2013-2014)` `12+(2014-2015)` `12+(P Value)` `12-17(2013-2014)`
    ##    <chr>     <chr>            <chr>            <chr>          <chr>             
    ##  1 Total U.… 12.90a           13.36            0.002          13.28b            
    ##  2 Northeast 13.88a           14.66            0.005          13.98             
    ##  3 Midwest   12.40b           12.76            0.082          12.45             
    ##  4 South     11.24a           11.64            0.029          12.02             
    ##  5 West      15.27            15.62            0.262          15.53a            
    ##  6 Alabama   9.98             9.60             0.426          9.90              
    ##  7 Alaska    19.60a           21.92            0.010          17.30             
    ##  8 Arizona   13.69            13.12            0.364          15.12             
    ##  9 Arkansas  11.37            11.59            0.678          12.79             
    ## 10 Californ… 14.49            15.25            0.103          15.03             
    ## # ℹ 46 more rows
    ## # ℹ 11 more variables: `12-17(2014-2015)` <chr>, `12-17(P Value)` <chr>,
    ## #   `18-25(2013-2014)` <chr>, `18-25(2014-2015)` <chr>, `18-25(P Value)` <chr>,
    ## #   `26+(2013-2014)` <chr>, `26+(2014-2015)` <chr>, `26+(P Value)` <chr>,
    ## #   `18+(2013-2014)` <chr>, `18+(2014-2015)` <chr>, `18+(P Value)` <chr>
…
data_marj
```

    ## # A tibble: 510 × 4
    ##    State   age   year      percent
    ##    <chr>   <chr> <chr>       <dbl>
    ##  1 Alabama 12+   2013-2014    9.98
    ##  2 Alabama 12+   2014-2015    9.6 
    ##  3 Alabama 12-17 2013-2014    9.9 
    ##  4 Alabama 12-17 2014-2015    9.71
    ##  5 Alabama 18-25 2013-2014   27.0 
    ##  6 Alabama 18-25 2014-2015   26.1 
    ##  7 Alabama 26+   2013-2014    7.1 
    ##  8 Alabama 26+   2014-2015    6.81
    ##  9 Alabama 18+   2013-2014    9.99
    ## 10 Alabama 18+   2014-2015    9.59
    ## # ℹ 500 more rows
